openfpga_files/generic-fpga/run004/vpr_arch/and2/MIN_ROUTE_CHAN_WIDTH/and2_formal.vcd
$date
	Wed May  3 10:50:55 2023
$end
$version
	Icarus Verilog
$end
$timescale
	1ps
$end
$scope module and2_autocheck_top_tb $end
$var wire 1 ! __op_clock__ $end
$var wire 1 " __prog_clock__ $end
$var wire 1 # clk $end
$var wire 64 $ gfpga_pad_GPIO_PAD [0:63] $end
$var wire 1 % pReset $end
$var wire 1 & prog_clk $end
$var wire 1 ' reset $end
$var wire 1 ( set $end
$var wire 1 ) ccff_tail $end
$var wire 1 * c_fpga $end
$var wire 1 + c_benchmark $end
$var reg 1 , __config_done__ $end
$var reg 1 - __greset__ $end
$var reg 1 . __gset__ $end
$var reg 1 / __op_clock___reg__ $end
$var reg 1 0 __prog_clock___reg__ $end
$var reg 1 1 __prog_reset__ $end
$var reg 1 2 __prog_set_ $end
$var reg 1 3 a_shared_input $end
$var reg 1 4 b_shared_input $end
$var reg 14 5 bit_index [13:0] $end
$var reg 1 6 c_flag $end
$var reg 1 7 ccff_head $end
$var reg 14 8 ibit [13:0] $end
$var reg 1 9 sim_start $end
$var reg 1 : skip_bits $end
$var integer 32 ; nb_error [31:0] $end
$upscope $end
$enddefinitions $end
#0
$dumpvars
b1 ;
0:
19
b1110001110111 8
07
06
b0 5
14
03
12
11
00
0/
0.
1-
0,
0+
0*
0)
0(
1'
0&
1%
b0x000000000000000 $
0#
0"
0!
$end
#1667
10
#3333
1&
1"
02
0%
01
#3334
b1 5
17
0&
0"
00
#5001
1&
1"
10
#6668
b10 5
07
0&
0"
00
#8335
1&
1"
10
#10002
b11 5
0&
0"
00
#11669
1&
1"
10
#13336
b100 5
0&
0"
00
#15003
1&
1"
10
#16670
b101 5
0&
0"
00
#18337
1&
1"
10
#20004
b110 5
0&
0"
00
#21671
1&
1"
10
#23338
b111 5
0&
0"
00
#25005
1&
1"
10
#26672
b1000 5
0&
0"
00
#28339
1&
1"
10
#30006
b1001 5
0&
0"
00
#31673
1&
1"
10
#33340
b1010 5
0&
0"
00
#35007
1&
1"
10
#36674
b1011 5
0&
0"
00
#38341
z*
b0z0000000000000x000000000000000 $
1&
1"
10
#40008
b1100 5
0&
0"
00
#41675
0*
b0x000000000000000 $
1&
1"
10
#43342
b1101 5
0&
0"
00
#45009
1&
1"
10
#46676
b1110 5
0&
0"
00
#48343
1&
1"
10
#50010
b1111 5
0&
0"
00
#51677
1&
1"
10
#53344
b10000 5
0&
0"
00
#55011
1&
1"
10
#56678
b10001 5
17
0&
0"
00
#58345
1&
1"
10
#60012
b10010 5
07
0&
0"
00
#61679
1&
1"
10
#63346
b10011 5
0&
0"
00
#65013
1&
1"
10
#66680
b10100 5
0&
0"
00
#68347
1&
1"
10
#70014
b10101 5
0&
0"
00
#71681
1&
1"
10
#73348
b10110 5
0&
0"
00
#75015
1&
1"
10
#76682
b10111 5
0&
0"
00
#78349
1&
1"
10
#80016
b11000 5
0&
0"
00
#81683
1&
1"
10
#83350
b11001 5
0&
0"
00
#85017
1&
1"
10
#86684
b11010 5
0&
0"
00
#88351
1&
1"
10
#90018
b11011 5
0&
0"
00
#91685
z*
b0z0000000000000x000000000000000 $
1&
1"
10
#93352
b11100 5
0&
0"
00
#95019
0*
b0x000000000000000 $
1&
1"
10
#96686
b11101 5
0&
0"
00
#98353
1&
1"
10
#100020
b11110 5
0&
0"
00
#101687
1&
1"
10
#103354
b11111 5
0&
0"
00
#105021
1&
1"
10
#106688
b100000 5
0&
0"
00
#108355
1&
1"
10
#110022
b100001 5
17
0&
0"
00
#111689
1&
1"
10
#113356
b100010 5
07
0&
0"
00
#115023
1&
1"
10
#116690
b100011 5
0&
0"
00
#118357
1&
1"
10
#120024
b100100 5
0&
0"
00
#121691
1&
1"
10
#123358
b100101 5
0&
0"
00
#125025
1&
1"
10
#126692
b100110 5
0&
0"
00
#128359
1&
1"
10
#130026
b100111 5
0&
0"
00
#131693
1&
1"
10
#133360
b101000 5
0&
0"
00
#135027
1&
1"
10
#136694
b101001 5
0&
0"
00
#138361
1&
1"
10
#140028
b101010 5
0&
0"
00
#141695
1&
1"
10
#143362
b101011 5
0&
0"
00
#145029
z*
b0z0000000000000x000000000000000 $
1&
1"
10
#146696
b101100 5
0&
0"
00
#148363
0*
b0x000000000000000 $
1&
1"
10
#150030
b101101 5
0&
0"
00
#151697
1&
1"
10
#153364
b101110 5
0&
0"
00
#155031
1&
1"
10
#156698
b101111 5
0&
0"
00
#158365
1&
1"
10
#160032
b110000 5
0&
0"
00
#161699
1&
1"
10
#163366
b110001 5
17
0&
0"
00
#165033
1&
1"
10
#166700
b110010 5
07
0&
0"
00
#168367
1&
1"
10
#170034
b110011 5
0&
0"
00
#171701
1&
1"
10
#173368
b110100 5
0&
0"
00
#175035
1&
1"
10
#176702
b110101 5
0&
0"
00
#178369
1&
1"
10
#180036
b110110 5
0&
0"
00
#181703
1&
1"
10
#183370
b110111 5
0&
0"
00
#185037
1&
1"
10
#186704
b111000 5
0&
0"
00
#188371
1&
1"
10
#190038
b111001 5
0&
0"
00
#191705
1&
1"
10
#193372
b111010 5
0&
0"
00
#195039
1&
1"
10
#196706
b111011 5
0&
0"
00
#198373
z*
b0z0000000000000x000000000000000 $
1&
1"
10
#200040
b111100 5
0&
0"
00
#201707
0*
b0x000000000000000 $
1&
1"
10
#203374
b111101 5
0&
0"
00
#205041
1&
1"
10
#206708
b111110 5
0&
0"
00
#208375
b0x000000000000000 $
1&
1"
10
#210042
b111111 5
0&
0"
00
#211709
b0x000000000000000 $
1&
1"
10
#213376
b1000000 5
0&
0"
00
#215043
b0x000000000000000 $
1&
1"
10
#216710
b1000001 5
17
0&
0"
00
#218377
b0x000000000000000 $
1&
1"
10
#220044
b1000010 5
07
0&
0"
00
#221711
b0x000000000000000 $
1&
1"
10
#223378
b1000011 5
0&
0"
00
#225045
b0x000000000000000 $
1&
1"
10
#226712
b1000100 5
0&
0"
00
#228379
b0x000000000000000 $
1&
1"
10
#230046
b1000101 5
0&
0"
00
#231713
b0x000000000000000 $
1&
1"
10
#233380
b1000110 5
0&
0"
00
#235047
b0x000000000000000 $
1&
1"
10
#236714
b1000111 5
0&
0"
00
#238381
b0x000000000000000 $
1&
1"
10
#240048
b1001000 5
0&
0"
00
#241715
b0x000000000000000 $
1&
1"
10
#243382
b1001001 5
0&
0"
00
#245049
b0x000000000000000 $
1&
1"
10
#246716
b1001010 5
0&
0"
00
#248383
b0x000000000000000 $
1&
1"
10
#250050
b1001011 5
0&
0"
00
#251717
z*
b0z0000000000000x000000000000000 $
1&
1"
10
#253384
b1001100 5
0&
0"
00
#255051
0*
b0x000000000000000 $
1&
1"
10
#256718
b1001101 5
0&
0"
00
#258385
b0x000000000000000 $
1&
1"
10
#260052
b1001110 5
0&
0"
00
#261719
b0x000000000000000 $
1&
1"
10
#263386
b1001111 5
0&
0"
00
#265053
b0x000000000000000 $
1&
1"
10
#266720
b1010000 5
0&
0"
00
#268387
b0x000000000000000 $
1&
1"
10
#270054
b1010001 5
17
0&
0"
00
#271721
b0x000000000000000 $
1&
1"
10
#273388
b1010010 5
07
0&
0"
00
#275055
b0x000000000000000 $
1&
1"
10
#276722
b1010011 5
0&
0"
00
#278389
b0x000000000000000 $
1&
1"
10
#280056
b1010100 5
0&
0"
00
#281723
b0x000000000000000 $
1&
1"
10
#283390
b1010101 5
0&
0"
00
#285057
b0x000000000000000 $
1&
1"
10
#286724
b1010110 5
0&
0"
00
#288391
b0x000000000000000 $
1&
1"
10
#290058
b1010111 5
0&
0"
00
#291725
b0x000000000000000 $
1&
1"
10
#293392
b1011000 5
0&
0"
00
#295059
b0x000000000000000 $
1&
1"
10
#296726
b1011001 5
0&
0"
00
#298393
b0x000000000000000 $
1&
1"
10
#300060
b1011010 5
0&
0"
00
#301727
b0x000000000000000 $
1&
1"
10
#303394
b1011011 5
0&
0"
00
#305061
z*
b0z0000000000000x000000000000000 $
1&
1"
10
#306728
b1011100 5
0&
0"
00
#308395
0*
b0x000000000000000 $
1&
1"
10
#310062
b1011101 5
0&
0"
00
#311729
b0x000000000000000 $
1&
1"
10
#313396
b1011110 5
0&
0"
00
#315063
b0x000000000000000 $
1&
1"
10
#316730
b1011111 5
0&
0"
00
#318397
1&
1"
10
#320064
b1100000 5
0&
0"
00
#321731
1&
1"
10
#323398
b1100001 5
17
0&
0"
00
#325065
b0x000000000000000 $
1&
1"
10
#326732
b1100010 5
07
0&
0"
00
#328399
b0x000000000000000 $
1&
1"
10
#330066
b1100011 5
0&
0"
00
#331733
b0x000000000000000 $
1&
1"
10
#333400
b1100100 5
0&
0"
00
#335067
b0x000000000000000 $
1&
1"
10
#336734
b1100101 5
0&
0"
00
#338401
b0x000000000000000 $
1&
1"
10
#340068
b1100110 5
0&
0"
00
#341735
b0x000000000000000 $
1&
1"
10
#343402
b1100111 5
0&
0"
00
#345069
b0x000000000000000 $
1&
1"
10
#346736
b1101000 5
0&
0"
00
#348403
b0x0000000000000000000000000000000000x000000000000000 $
1&
1"
10
#350070
b1101001 5
0&
0"
00
#351737
b0x000000000000000 $
1&
1"
10
#353404
b1101010 5
0&
0"
00
#355071
b0x000000000000000 $
1&
1"
10
#356738
b1101011 5
0&
0"
00
#358405
z*
b0z0000000000000x000000000000000 $
1&
1"
10
#360072
b1101100 5
0&
0"
00
#361739
0*
b0x000000000000000 $
1&
1"
10
#363406
b1101101 5
0&
0"
00
#365073
b0x000000000000000 $
1&
1"
10
#366740
b1101110 5
0&
0"
00
#368407
b0x000000000000000000000000000000000000000x000000000000000 $
1&
1"
10
#370074
b1101111 5
0&
0"
00
#371741
b0x000000000000000 $
1&
1"
10
#373408
b1110000 5
0&
0"
00
#375075
1&
1"
10
#376742
b1110001 5
17
0&
0"
00
#378409
b0x000000000000000 $
1&
1"
10
#380076
b1110010 5
07
0&
0"
00
#381743
b0x000000000000000 $
1&
1"
10
#383410
b1110011 5
0&
0"
00
#385077
b0x000000000000000 $
1&
1"
10
#386744
b1110100 5
0&
0"
00
#388411
b0x000000000000000 $
1&
1"
10
#390078
b1110101 5
0&
0"
00
#391745
b0x000000000000000 $
1&
1"
10
#393412
b1110110 5
0&
0"
00
#395079
b0x000000000000000 $
1&
1"
10
#396746
b1110111 5
0&
0"
00
#398413
b0x000000000000000 $
1&
1"
10
#400080
b1111000 5
0&
0"
00
#401747
b0x0000000000000000000000000000000000x000000000000000 $
1&
1"
10
#403414
b1111001 5
0&
0"
00
#405081
b0x000000000000000 $
1&
1"
10
#406748
b1111010 5
0&
0"
00
#408415
b0x000000000000000 $
1&
1"
10
#410082
b1111011 5
0&
0"
00
#411749
z*
b0z0000000000000x000000000000000 $
1&
1"
10
#413416
b1111100 5
0&
0"
00
#415083
0*
b0x000000000000000 $
1&
1"
10
#416750
b1111101 5
0&
0"
00
#418417
b0x000000000000000 $
1&
1"
10
#420084
b1111110 5
0&
0"
00
#421751
b0x000000000000000000000000000000000000000x000000000000000 $
1&
1"
10
#423418
b1111111 5
0&
0"
00
#425085
b0x000000000000000 $
1&
1"
10
#426752
b10000000 5
0&
0"
00
#428419
1&
1"
10
#430086
b10000001 5
17
0&
0"
00
#431753
b0x000000000000000 $
1&
1"
10
#433420
b10000010 5
07
0&
0"
00
#435087
b0x000000000000000 $
1&
1"
10
#436754
b10000011 5
0&
0"
00
#438421
b0x000000000000000 $
1&
1"
10
#440088
b10000100 5
0&
0"
00
#441755
b0x000000000000000 $
1&
1"
10
#443422
b10000101 5
0&
0"
00
#445089
b0x000000000000000 $
1&
1"
10
#446756
b10000110 5
0&
0"
00
#448423
b0x000000000000000 $
1&
1"
10
#450090
b10000111 5
0&
0"
00
#451757
b0x000000000000000 $
1&
1"
10
#453424
b10001000 5
0&
0"
00
#455091
b0x000000000000000 $
1&
1"
10
#456758
b10001001 5
0&
0"
00
#458425
b0x000000000000000 $
1&
1"
10
#460092
b10001010 5
0&
0"
00
#461759
b0x000000000000000 $
1&
1"
10
#463426
b10001011 5
0&
0"
00
#465093
z*
b0z0000000000000x000000000000000 $
1&
1"
10
#466760
b10001100 5
0&
0"
00
#468427
0*
b0x000000000000000 $
1&
1"
10
#470094
b10001101 5
0&
0"
00
#471761
b0x000000000000000 $
1&
1"
10
#473428
b10001110 5
0&
0"
00
#475095
b0x000000000000000 $
1&
1"
10
#476762
b10001111 5
0&
0"
00
#478429
1&
1"
10
#480096
b10010000 5
0&
0"
00
#481763
bx00000000000000000000000000000000000000000000000x000000000000000 $
1&
1"
10
#483430
b10010001 5
17
0&
0"
00
#485097
b0x000000000000000 $
1&
1"
10
#486764
b10010010 5
07
0&
0"
00
#488431
b0x000000000000000 $
1&
1"
10
#490098
b10010011 5
0&
0"
00
#491765
b0x000000000000000 $
1&
1"
10
#493432
b10010100 5
0&
0"
00
#495099
b0x000000000000000 $
1&
1"
10
#496766
b10010101 5
0&
0"
00
#498433
b0x000000000000000 $
1&
1"
10
#500100
b10010110 5
0&
0"
00
#501767
b0x000000000000000 $
1&
1"
10
#503434
b10010111 5
0&
0"
00
#505101
b0x000000000000000 $
1&
1"
10
#506768
b10011000 5
0&
0"
00
#508435
b0x0000000000000000000000000000000000x000000000000000 $
1&
1"
10
#510102
b10011001 5
0&
0"
00
#511769
b0x000000000000000 $
1&
1"
10
#513436
b10011010 5
0&
0"
00
#515103
b0x000000000000000000000000000000000000000000x000000000000000 $
1&
1"
10
#516770
b10011011 5
0&
0"
00
#518437
z*
b0z0000000000000x000000000000000 $
1&
1"
10
#520104
b10011100 5
0&
0"
00
#521771
0*
b0x00000000000000000000000000000000000000000x000000000000000 $
1&
1"
10
#523438
b10011101 5
0&
0"
00
#525105
b0x000000000000000 $
1&
1"
10
#526772
b10011110 5
0&
0"
00
#528439
b0x000000000000000000000000000000000000000x000000000000000 $
1&
1"
10
#530106
b10011111 5
0&
0"
00
#531773
b0x000000000000000 $
1&
1"
10
#533440
b10100000 5
0&
0"
00
#535107
bx00000000000000000000000000000000000000000000000x000000000000000 $
1&
1"
10
#536774
b10100001 5
17
0&
0"
00
#538441
b0x000000000000000 $
1&
1"
10
#540108
b10100010 5
07
0&
0"
00
#541775
b0x0000000000000000000000000000000000000000000000x000000000000000 $
1&
1"
10
#543442
b10100011 5
0&
0"
00
#545109
b0x000000000000000 $
1&
1"
10
#546776
b10100100 5
0&
0"
00
#548443
b0x000000000000000 $
1&
1"
10
#550110
b10100101 5
0&
0"
00
#551777
b0x000000000000000 $
1&
1"
10
#553444
b10100110 5
0&
0"
00
#555111
b0x000000000000000 $
1&
1"
10
#556778
b10100111 5
0&
0"
00
#558445
b0x000000000000000 $
1&
1"
10
#560112
b10101000 5
0&
0"
00
#561779
b0x0000000000000000000000000000000000000000000x000000000000000 $
1&
1"
10
#563446
b10101001 5
0&
0"
00
#565113
b0x000000000000000 $
1&
1"
10
#566780
b10101010 5
0&
0"
00
#568447
b0x000000000000000 $
1&
1"
10
#570114
b10101011 5
0&
0"
00
#571781
z*
b0z0000000000000x000000000000000 $
1&
1"
10
#573448
b10101100 5
0&
0"
00
#575115
0*
b0x000000000000000 $
1&
1"
10
#576782
b10101101 5
0&
0"
00
#578449
b0x000000000000000 $
1&
1"
10
#580116
b10101110 5
0&
0"
00
#581783
b0x000000000000000 $
1&
1"
10
#583450
b10101111 5
0&
0"
00
#585117
b0x000000000000000 $
1&
1"
10
#586784
b10110000 5
0&
0"
00
#588451
b0x000000000000000 $
1&
1"
10
#590118
b10110001 5
17
0&
0"
00
#591785
b0x000000000000000 $
1&
1"
10
#593452
b10110010 5
07
0&
0"
00
#595119
b0x000000000000000 $
1&
1"
10
#596786
b10110011 5
0&
0"
00
#598453
b0x000000000000000 $
1&
1"
10
#600120
b10110100 5
0&
0"
00
#601787
b0x000000000000000 $
1&
1"
10
#603454
b10110101 5
0&
0"
00
#605121
b0x000000000000000 $
1&
1"
10
#606788
b10110110 5
0&
0"
00
#608455
b0x000000000000000 $
1&
1"
10
#610122
b10110111 5
0&
0"
00
#611789
b0x000000000000000 $
1&
1"
10
#613456
b10111000 5
0&
0"
00
#615123
b0x0000000000000000000000000000000000x000000000000000 $
1&
1"
10
#616790
b10111001 5
0&
0"
00
#618457
b0x000000000000000 $
1&
1"
10
#620124
b10111010 5
0&
0"
00
#621791
b0x000000000000000 $
1&
1"
10
#623458
b10111011 5
0&
0"
00
#625125
z*
b0z0000000000000x000000000000000 $
1&
1"
10
#626792
b10111100 5
0&
0"
00
#628459
0*
b0x00000000000000000000000000000000000000000x000000000000000 $
1&
1"
10
#630126
b10111101 5
0&
0"
00
#631793
b0x000000000000000 $
1&
1"
10
#633460
b10111110 5
0&
0"
00
#635127
b0x000000000000000000000000000000000000000x000000000000000 $
1&
1"
10
#636794
b10111111 5
0&
0"
00
#638461
b0x000000000000000 $
1&
1"
10
#640128
b11000000 5
0&
0"
00
#641795
b0x000000000000000 $
1&
1"
10
#643462
b11000001 5
17
0&
0"
00
#645129
b0x000000000000000 $
1&
1"
10
#646796
b11000010 5
07
0&
0"
00
#648463
b0x000000000000000 $
1&
1"
10
#650130
b11000011 5
0&
0"
00
#651797
b0x000000000000000 $
1&
1"
10
#653464
b11000100 5
0&
0"
00
#655131
b0x000000000000000 $
1&
1"
10
#656798
b11000101 5
0&
0"
00
#658465
b0x000000000000000 $
1&
1"
10
#660132
b11000110 5
0&
0"
00
#661799
b0x000000000000000 $
1&
1"
10
#663466
b11000111 5
0&
0"
00
#665133
b0x000000000000000 $
1&
1"
10
#666800
b11001000 5
0&
0"
00
#668467
b0x00000000x0000000000000000000000000000000000x000000000000000 $
1&
1"
10
#670134
b11001001 5
0&
0"
00
#671801
b0x000000000000000 $
1&
1"
10
#673468
b11001010 5
0&
0"
00
#675135
b0x000000000000000000000000000000000000000000x000000000000000 $
1&
1"
10
#676802
b11001011 5
0&
0"
00
#678469
z*
b0z0000000000000x000000000000000 $
1&
1"
10
#680136
b11001100 5
0&
0"
00
#681803
0*
b0x00000000000000000000000000000000000000000x000000000000000 $
1&
1"
10
#683470
b11001101 5
0&
0"
00
#685137
b0x000000000000000 $
1&
1"
10
#686804
b11001110 5
0&
0"
00
#688471
b0x000000000000000000000000000000000000000x000000000000000 $
1&
1"
10
#690138
b11001111 5
0&
0"
00
#691805
b0x000000000000000 $
1&
1"
10
#693472
b11010000 5
0&
0"
00
#695139
bx00000000000000000000000000000000000000000000000x000000000000000 $
1&
1"
10
#696806
b11010001 5
17
0&
0"
00
#698473
b0x000000000000000 $
1&
1"
10
#700140
b11010010 5
07
0&
0"
00
#701807
b0x000000000000000 $
1&
1"
10
#703474
b11010011 5
0&
0"
00
#705141
b0x000000000000000 $
1&
1"
10
#706808
b11010100 5
0&
0"
00
#708475
b0x000000000000000 $
1&
1"
10
#710142
b11010101 5
0&
0"
00
#711809
b0x000000000000000 $
1&
1"
10
#713476
b11010110 5
0&
0"
00
#715143
b0x000000000000000 $
1&
1"
10
#716810
b11010111 5
0&
0"
00
#718477
b0x000000000000000 $
1&
1"
10
#720144
b11011000 5
0&
0"
00
#721811
b0x0000000000000000000000000000000000000000000x000000000000000 $
1&
1"
10
#723478
b11011001 5
0&
0"
00
#725145
b0x000000000000000 $
1&
1"
10
#726812
b11011010 5
0&
0"
00
#728479
b0x000000000000000000000000000000000000000000x000000000000000 $
1&
1"
10
#730146
b11011011 5
0&
0"
00
#731813
z*
b0z0000000000000x000000000000000 $
1&
1"
10
#733480
b11011100 5
0&
0"
00
#735147
0*
b0x000000000000000 $
1&
1"
10
#736814
b11011101 5
0&
0"
00
#738481
b0x000000000000000 $
1&
1"
10
#740148
b11011110 5
0&
0"
00
#741815
b0x000000000000000 $
1&
1"
10
#743482
b11011111 5
0&
0"
00
#745149
b0x000000000000000 $
1&
1"
10
#746816
b11100000 5
0&
0"
00
#748483
bx00000000000000000000000000000000000000000000000x000000000000000 $
1&
1"
10
#750150
b11100001 5
17
0&
0"
00
#751817
b0x000000000000000 $
1&
1"
10
#753484
b11100010 5
07
0&
0"
00
#755151
b0x000000000000000 $
1&
1"
10
#756818
b11100011 5
0&
0"
00
#758485
b0x000000000000000 $
1&
1"
10
#760152
b11100100 5
0&
0"
00
#761819
b0x000000000000000 $
1&
1"
10
#763486
b11100101 5
0&
0"
00
#765153
b0x000000000000000 $
1&
1"
10
#766820
b11100110 5
0&
0"
00
#768487
b0x000000000000000 $
1&
1"
10
#770154
b11100111 5
0&
0"
00
#771821
b0x000000000000000 $
1&
1"
10
#773488
b11101000 5
0&
0"
00
#775155
b0x00000000x0000000000000000000000000000000000x000000000000000 $
1&
1"
10
#776822
b11101001 5
0&
0"
00
#778489
b0x000000000000000 $
1&
1"
10
#780156
b11101010 5
0&
0"
00
#781823
b0x000000000000000 $
1&
1"
10
#783490
b11101011 5
0&
0"
00
#785157
z*
b0z0000000000000x000000000000000 $
1&
1"
10
#786824
b11101100 5
0&
0"
00
#788491
0*
b0x00000000000000000000000000000000000000000x000000000000000 $
1&
1"
10
#790158
b11101101 5
0&
0"
00
#791825
b0x000000000000000 $
1&
1"
10
#793492
b11101110 5
0&
0"
00
#795159
b0x000000000000000000000000000000000000000x000000000000000 $
1&
1"
10
#796826
b11101111 5
0&
0"
00
#798493
b0x000000000000000 $
1&
1"
10
#800160
b11110000 5
0&
0"
00
#801827
b0x000000000000000 $
1&
1"
10
#803494
b11110001 5
17
0&
0"
00
#805161
b0x000000000000000 $
1&
1"
10
#806828
b11110010 5
07
0&
0"
00
#808495
b0x000000000000000 $
1&
1"
10
#810162
b11110011 5
0&
0"
00
#811829
b0x000000000000000 $
1&
1"
10
#813496
b11110100 5
0&
0"
00
#815163
b0x000000000000000 $
1&
1"
10
#816830
b11110101 5
0&
0"
00
#818497
b0x000000000000000 $
1&
1"
10
#820164
b11110110 5
0&
0"
00
#821831
b0x000000000000000 $
1&
1"
10
#823498
b11110111 5
0&
0"
00
#825165
b0x000000000000000 $
1&
1"
10
#826832
b11111000 5
0&
0"
00
#828499
b0x0000000000000000000000000000000000000000000x000000000000000 $
1&
1"
10
#830166
b11111001 5
0&
0"
00
#831833
b0x000000000000000 $
1&
1"
10
#833500
b11111010 5
0&
0"
00
#835167
b0x000000000000000 $
1&
1"
10
#836834
b11111011 5
0&
0"
00
#838501
z*
b0z0000000000000x000000000000000 $
1&
1"
10
#840168
b11111100 5
0&
0"
00
#841835
0*
b0x000000000000000 $
1&
1"
10
#843502
b11111101 5
0&
0"
00
#845169
b0x000000000000000 $
1&
1"
10
#846836
b11111110 5
0&
0"
00
#848503
b0x000000000000000 $
1&
1"
10
#850170
b11111111 5
0&
0"
00
#851837
b0x000000000000000 $
1&
1"
10
#853504
b100000000 5
0&
0"
00
#855171
b0x000000000000000 $
1&
1"
10
#856838
b100000001 5
17
0&
0"
00
#858505
b0x000000000000000 $
1&
1"
10
#860172
b100000010 5
07
0&
0"
00
#861839
b0x000000000000000 $
1&
1"
10
#863506
b100000011 5
0&
0"
00
#865173
b0x000000000000000 $
1&
1"
10
#866840
b100000100 5
0&
0"
00
#868507
b0x000000000000000 $
1&
1"
10
#870174
b100000101 5
0&
0"
00
#871841
b0x000000000000000 $
1&
1"
10
#873508
b100000110 5
0&
0"
00
#875175
b0x000000000000000 $
1&
1"
10
#876842
b100000111 5
0&
0"
00
#878509
b0x000000000000000 $
1&
1"
10
#880176
b100001000 5
0&
0"
00
#881843
b0x0000000000000000000000000000000000000000000x000000000000000 $
1&
1"
10
#883510
b100001001 5
0&
0"
00
#885177
b0x000000000000000 $
1&
1"
10
#886844
b100001010 5
0&
0"
00
#888511
b0x000000000000000 $
1&
1"
10
#890178
b100001011 5
0&
0"
00
#891845
z*
b0z0000000000000x000000000000000 $
1&
1"
10
#893512
b100001100 5
0&
0"
00
#895179
0*
b0x000000000000000 $
1&
1"
10
#896846
b100001101 5
0&
0"
00
#898513
b0x000000000000000 $
1&
1"
10
#900180
b100001110 5
0&
0"
00
#901847
b0x000000000000000 $
1&
1"
10
#903514
b100001111 5
0&
0"
00
#905181
b0x000000000000000 $
1&
1"
10
#906848
b100010000 5
0&
0"
00
#908515
b0x000000000000000 $
1&
1"
10
#910182
b100010001 5
17
0&
0"
00
#911849
b0x000000000000000 $
1&
1"
10
#913516
b100010010 5
07
0&
0"
00
#915183
b0x000000000000000 $
1&
1"
10
#916850
b100010011 5
0&
0"
00
#918517
b0x000000000000000 $
1&
1"
10
#920184
b100010100 5
0&
0"
00
#921851
b0x000000000000000 $
1&
1"
10
#923518
b100010101 5
0&
0"
00
#925185
b0x000000000000000 $
1&
1"
10
#926852
b100010110 5
0&
0"
00
#928519
b0x000000000000000 $
1&
1"
10
#930186
b100010111 5
0&
0"
00
#931853
b0x000000000000000 $
1&
1"
10
#933520
b100011000 5
0&
0"
00
#935187
b0x000000000000000 $
1&
1"
10
#936854
b100011001 5
0&
0"
00
#938521
b0x000000000000000 $
1&
1"
10
#940188
b100011010 5
0&
0"
00
#941855
b0x000000000000000000000000000000000000000000x000000000000000 $
1&
1"
10
#943522
b100011011 5
0&
0"
00
#945189
z*
b0z0000000000000x000000000000000 $
1&
1"
10
#946856
b100011100 5
0&
0"
00
#948523
0*
b0x000000000000000 $
1&
1"
10
#950190
b100011101 5
0&
0"
00
#951857
b0x000000000000000 $
1&
1"
10
#953524
b100011110 5
0&
0"
00
#955191
b0x000000000000000 $
1&
1"
10
#956858
b100011111 5
0&
0"
00
#958525
b0x000000000000000 $
1&
1"
10
#960192
b100100000 5
0&
0"
00
#961859
bx00000000000000000000000000000000000000000000000x000000000000000 $
1&
1"
10
#963526
b100100001 5
17
0&
0"
00
#965193
b0x000000000000000 $
1&
1"
10
#966860
b100100010 5
07
0&
0"
00
#968527
b0x000000000000000 $
1&
1"
10
#970194
b100100011 5
0&
0"
00
#971861
b0x000000000000000 $
1&
1"
10
#973528
b100100100 5
0&
0"
00
#975195
b0x000000000000000 $
1&
1"
10
#976862
b100100101 5
0&
0"
00
#978529
b0x000000000000000 $
1&
1"
10
#980196
b100100110 5
0&
0"
00
#981863
b0x000000000000000 $
1&
1"
10
#983530
b100100111 5
0&
0"
00
#985197
b0x000000000000000 $
1&
1"
10
#986864
b100101000 5
0&
0"
00
#988531
b0x0000000000000000000000000000000000x000000000000000 $
1&
1"
10
#990198
b100101001 5
0&
0"
00
#991865
b0x000000000000000 $
1&
1"
10
#993532
b100101010 5
0&
0"
00
#995199
b0x000000000000000000000000000000000000000000x000000000000000 $
1&
1"
10
#996866
b100101011 5
0&
0"
00
#998533
z*
b0z0000000000000x000000000000000 $
1&
1"
10
#1000200
b100101100 5
0&
0"
00
#1001867
0*
b0x00000000000000000000000000000000000000000x000000000000000 $
1&
1"
10
#1003534
b100101101 5
0&
0"
00
#1005201
b0x000000000000000 $
1&
1"
10
#1006868
b100101110 5
0&
0"
00
#1008535
b0x000000000000000000000000000000000000000x000000000000000 $
1&
1"
10
#1010202
b100101111 5
0&
0"
00
#1011869
b0x000000000000000 $
1&
1"
10
#1013536
b100110000 5
0&
0"
00
#1015203
bx00000000000000000000000000000000000000000000000x000000000000000 $
1&
1"
10
#1016870
b100110001 5
17
0&
0"
00
#1018537
b0x000000000000000 $
1&
1"
10
#1020204
b100110010 5
07
0&
0"
00
#1021871
b0x000000000000000 $
1&
1"
10
#1023538
b100110011 5
0&
0"
00
#1025205
b0x000000000000000 $
1&
1"
10
#1026872
b100110100 5
0&
0"
00
#1028539
b0x000000000000000 $
1&
1"
10
#1030206
b100110101 5
0&
0"
00
#1031873
b0x000000000000000 $
1&
1"
10
#1033540
b100110110 5
0&
0"
00
#1035207
b0x000000000000000 $
1&
1"
10
#1036874
b100110111 5
0&
0"
00
#1038541
b0x000000000000000 $
1&
1"
10
#1040208
b100111000 5
0&
0"
00
#1041875
b0x000000000000000 $
1&
1"
10
#1043542
b100111001 5
0&
0"
00
#1045209
b0x000000000000000 $
1&
1"
10
#1046876
b100111010 5
0&
0"
00
#1048543
b0x000000000000000000000000000000000000000000x000000000000000 $
1&
1"
10
#1050210
b100111011 5
0&
0"
00
#1051877
z*
b0z0000000000000x000000000000000 $
1&
1"
10
#1053544
b100111100 5
0&
0"
00
#1055211
0*
b0x000000000000000 $
1&
1"
10
#1056878
b100111101 5
0&
0"
00
#1058545
b0x000000000000000 $
1&
1"
10
#1060212
b100111110 5
0&
0"
00
#1061879
b0x000000000000000 $
1&
1"
10
#1063546
b100111111 5
0&
0"
00
#1065213
b0x000000000000000 $
1&
1"
10
#1066880
b101000000 5
0&
0"
00
#1068547
bx00000000000000000000000000000000000000000000000x000000000000000 $
1&
1"
10
#1070214
b101000001 5
17
0&
0"
00
#1071881
b0x000000000000000 $
1&
1"
10
#1073548
b101000010 5
07
0&
0"
00
#1075215
b0x000000000000000 $
1&
1"
10
#1076882
b101000011 5
0&
0"
00
#1078549
b0x000000000000000 $
1&
1"
10
#1080216
b101000100 5
0&
0"
00
#1081883
b0x000000000000000 $
1&
1"
10
#1083550
b101000101 5
0&
0"
00
#1085217
b0x000000000000000 $
1&
1"
10
#1086884
b101000110 5
0&
0"
00
#1088551
b0x000000000000000 $
1&
1"
10
#1090218
b101000111 5
0&
0"
00
#1091885
b0x000000000000000 $
1&
1"
10
#1093552
b101001000 5
0&
0"
00
#1095219
b0x0000000000000000000000000000000000000000000x000000000000000 $
1&
1"
10
#1096886
b101001001 5
0&
0"
00
#1098553
b0x000000000000000 $
1&
1"
10
#1100220
b101001010 5
0&
0"
00
#1101887
b0x000000000000000 $
1&
1"
10
#1103554
b101001011 5
0&
0"
00
#1105221
z*
b0z0000000000000x000000000000000 $
1&
1"
10
#1106888
b101001100 5
0&
0"
00
#1108555
0*
b0x000000000000000 $
1&
1"
10
#1110222
b101001101 5
0&
0"
00
